{
  "count": 1118,
  "next": "https://pokeapi.co/api/v2/pokemon/?offset=5&limit=3",
  "previous": "https://pokeapi.co/api/v2/pokemon/?offset=0&limit=2",
  "results": [
    {
      "name": "venusaur",
      "url": "https://pokeapi.co/api/v2/pokemon/3/"
    },
    {
      "name": "charmander",
      "url": "https://pokeapi.co/api/v2/pokemon/4/"
    },
    {
      "name": "charmeleon",
      "url": "https://pokeapi.co/api/v2/pokemon/5/"
    }
  ]
}